ISSS608-VAA - Take-home Exercise 2
…
2.2 Data Wrangling

2.2.1 Extracting the nodes and edges

Extract the nodes:

Show the code

MC2_nodes <- as_tibble(MC2$nodes) %>%
  select(id, shpcountry, rcvcountry)
MC2_nodes

# A tibble: 34,576 × 3
   id                                shpcountry rcvcountry
   <chr>                             <chr>      <chr>     
 1 AquaDelight Inc and Son's         Polarinda  Oceanus   
 2 BaringoAmerica Marine Ges.m.b.H.  <NA>       <NA>      
 3 Yu gan  Sea spray GmbH Industrial Oceanus    Oceanus   
 4 FlounderLeska Marine BV           <NA>       <NA>      
 5 Olas del Mar Worldwide            Oceanus    Oceanus   
 6 French Crab S.p.A. Worldwide      Kondanovia Utoporiana
 7 KisumuSeafood Brothers Ltd        <NA>       <NA>      
 8 Panope Limited Liability Company  Vesperanda Oceanus   
 9 hǎi dǎn Corporation Wharf         Marebak    Oceanus   
10 NamRiver Transit A/S              <NA>       <NA>      
# ℹ 34,566 more rows
…
Extract year from arrivaldate.

Remove duplicate records, if any.

Show the code

MC2_edges <- as_tibble(MC2$links) %>%
  mutate(ArrivalDate = ymd(arrivaldate)) %>%
  mutate(Year = year(ArrivalDate)) %>%
  select(source, target, ArrivalDate, Year, hscode,  valueofgoods_omu, 
         volumeteu, weightkg, valueofgoodsusd) %>% 
  distinct()
MC2_edges

# A tibble: 5,309,087 × 9
   source    target ArrivalDate  Year hscode valueofgoods_omu volumeteu weightkg
   <chr>     <chr>  <date>      <dbl> <chr>             <dbl>     <dbl>    <int>
 1 AquaDeli… Barin… 2034-02-12   2034 630630           141015         0     4780
 2 AquaDeli… Barin… 2034-03-13   2034 630630           141015         0     6125
 3 AquaDeli… -15045 2028-02-07   2028 470710               NA         0    10855
 4 AquaDeli… -15045 2028-02-23   2028 470710               NA         0    11250
 5 AquaDeli… -15045 2028-09-11   2028 470710               NA         0    11165
 6 AquaDeli… -15045 2028-10-09   2028 470710               NA         0    11290
 7 AquaDeli… Océan… 2028-04-12   2028 304890               NA         0     9000
 8 AquaDeli… Olas … 2028-06-04   2028 304890               NA         0    19490
 9 AquaDeli… Shou … 2028-09-03   2028 303890               NA         0     6865
10 AquaDeli… Shou … 2028-09-08   2028 306170               NA         0    19065
# ℹ 5,309,077 more rows
# ℹ 1 more variable: valueofgoodsusd <dbl>
…
3.2.1 Overview: Top 80 Weights Companies

Data Preparation

Filter MC2_edges_aggregated data table by top 80 weights records.

Show the code

MC2_edges_aggregated_top80 <- MC2_edges_aggregated %>% 
  arrange(desc(weights)) %>%
  head(80)
MC2_edges_aggregated_top80

# A tibble: 80 × 5
   source                              target               hscode  Year weights
   <chr>                               <chr>                 <int> <dbl>   <int>
 1 "nián yú Ltd. Corporation"          Niger Bend   Limite… 304620  2031    3471
 2 "nián yú Ltd. Corporation"          Niger Bend   Limite… 304620  2030    2979
 3 "nián yú Ltd. Corporation"          Costa de la Felicid… 304620  2029    2797
 4 "Sea Breezes S.A. de C.V. Freight " Caracola del Sol Se… 304620  2031    2708
 5 "nián yú Ltd. Corporation"          Costa de la Felicid… 304620  2028    2473
 6 "nián yú Ltd. Corporation"          Niger Bend   Limite… 304620  2032    2215
 7 "Sea Breezes S.A. de C.V. Freight " Caracola del Sol Se… 304620  2030    2089
 8 "Sea Breezes S.A. de C.V. Freight " Pao gan SE Seal      304620  2033    1824
 9 "nián yú Ltd. Corporation"          Niger Bend   Limite… 304620  2033    1528
10 "Paradera S.A. de C.V."             Pao gan SE Seal      304620  2032    1473
# ℹ 70 more rows
…
Show the code

MC2_graph_indegree2028 %>%
  as_tibble()

# A tibble: 45 × 8
   id         in_degree out_degree  eigen betweenness in_closeness out_closeness
   <chr>          <dbl>      <dbl>  <dbl>       <dbl>        <dbl>         <dbl>
 1 hǎi dǎn C…      1778          0 1               0      0.000377      NaN     
 2 Mar del E…      1229          0 0.598           0      0.000597      NaN     
 3 Caracola …       790          0 0.315           0      0.000527      NaN     
 4 Costa de …       432          0 0.199           0      0.000366      NaN     
 5 Pao gan S…       423          6 0.173        2545.     0.000510        0.333 
 6 Sailors a…       348          0 0.134           0      0.00115       NaN     
 7 Selous Ga…       310         14 0.172        3358.     0.00136         0.0714
 8 Coral Cov…       262          1 0.0921        373      0.00141         1     
 9 Océano de…       256          0 0.0809          0      0.000649      NaN     
10 Kong zhon…       217          0 0.0858          0      0.00172       NaN     
# ℹ 35 more rows
# ℹ 1 more variable: group <int>
…
Show the code

MC2_graph_indegree2029 %>%
  as_tibble()

# A tibble: 54 × 8
   id         in_degree out_degree  eigen betweenness in_closeness out_closeness
   <chr>          <dbl>      <dbl>  <dbl>       <dbl>        <dbl>         <dbl>
 1 hǎi dǎn C…      1744          0 1               0      0.000412      NaN     
 2 Mar del E…      1188          0 0.599           0      0.000596      NaN     
 3 Caracola …       815          0 0.387           0      0.000374      NaN     
 4 Costa de …       524          1 0.257        1313      0.000318        1     
 5 Pao gan S…       433         10 0.187        9580.     0.000541        0.0323
 6 Sailors a…       387          0 0.140           0      0.000920      NaN     
 7 Selous Ga…       337         13 0.170        7590.     0.000903        0.02  
 8 Coral Cov…       241          3 0.0960        820      0.00117         0.5   
 9 Océano de…       232          0 0.0752          0      0.000728      NaN     
10 Yu xian  …       218          7 0.116        2588      0.00137         0.111 
# ℹ 44 more rows
# ℹ 1 more variable: group <int>
…
Show the code

MC2_graph_indegree2030 %>%
  as_tibble()

# A tibble: 52 × 8
   id         in_degree out_degree  eigen betweenness in_closeness out_closeness
   <chr>          <dbl>      <dbl>  <dbl>       <dbl>        <dbl>         <dbl>
 1 hǎi dǎn C…      1647          0 1               0      0.000384      NaN     
 2 Mar del E…      1218          2 0.626        2381.     0.000455        0.5   
 3 Caracola …       830          0 0.377           0      0.000433      NaN     
 4 Costa de …       538          0 0.283           0      0.000907      NaN     
 5 Pao gan S…       460          9 0.214        5852.     0.000368        0.2   
 6 Sailors a…       345          0 0.138           0      0.000868      NaN     
 7 Selous Ga…       337         15 0.180        4800.     0.000752        0.0556
 8 Kong zhon…       271          0 0.125           0      0.000261      NaN     
 9 Coral Cov…       251          4 0.106        2117.     0.00155         0.0769
10 Océano de…       209          0 0.0707          0      0.00123       NaN     
# ℹ 42 more rows
# ℹ 1 more variable: group <int>
…
Show the code

MC2_graph_indegree2031 %>%
  as_tibble()

# A tibble: 50 × 8
   id         in_degree out_degree  eigen betweenness in_closeness out_closeness
   <chr>          <dbl>      <dbl>  <dbl>       <dbl>        <dbl>         <dbl>
 1 "hǎi dǎn …      1607          0 1              0       0.000271     NaN      
 2 "Mar del …      1065          1 0.523       1558.      0.000186       1      
 3 "Caracola…       940          0 0.473          0       0.000257     NaN      
 4 "Costa de…       612          1 0.322       2606.      0.000197       0.333  
 5 "Pao gan …       444          4 0.200      58743.      0.000426       0.00317
 6 "Sailors …       374          0 0.184          0       0.000197     NaN      
 7 "Selous G…       299         13 0.170      22178.      0.000316       0.00272
 8 "Kong zho…       207          1 0.0996        91.8     0.000177       1      
 9 "Yu xian …       199          6 0.117       1314       0.00246        0.111  
10 "Pao gan …       196          0 0.0851         0       0.000157     NaN      
# ℹ 40 more rows
# ℹ 1 more variable: group <int>
…
Show the code

MC2_graph_indegree2032 %>%
  as_tibble()

# A tibble: 43 × 8
   id         in_degree out_degree  eigen betweenness in_closeness out_closeness
   <chr>          <dbl>      <dbl>  <dbl>       <dbl>        <dbl>         <dbl>
 1 hǎi dǎn C…      1561          0 1               0      0.000430       NaN    
 2 Mar del E…      1144          0 0.612           0      0.000595       NaN    
 3 Caracola …       888          0 0.435           0      0.000412       NaN    
 4 Costa de …       625          0 0.338           0      0.000451       NaN    
 5 Pao gan S…       514          0 0.225           0      0.000405       NaN    
 6 Sailors a…       411          0 0.200           0      0.000789       NaN    
 7 Selous Ga…       286         10 0.157        3845.     0.000958         0.1  
 8 Coral Cov…       183          2 0.0650        689.     0.00122          0.5  
 9 Brisa del…       171          0 0.0836          0      0.000504       NaN    
10 Yu xian  …       166          6 0.0988       1858.     0.000826         0.143
# ℹ 33 more rows
# ℹ 1 more variable: group <int>
…
Show the code

MC2_graph_indegree2033 %>%
  as_tibble()

# A tibble: 57 × 8
   id         in_degree out_degree  eigen betweenness in_closeness out_closeness
   <chr>          <dbl>      <dbl>  <dbl>       <dbl>        <dbl>         <dbl>
 1 "hǎi dǎn …      1640          0 1               0      0.000402      NaN     
 2 "Mar del …      1200          2 0.597        2784.     0.000392        0.5   
 3 "Caracola…       879          0 0.421           0      0.000369      NaN     
 4 "Costa de…       632          0 0.290           0      0.000386      NaN     
 5 "Pao gan …       482          0 0.217           0      0.000346      NaN     
 6 "Sailors …       440          0 0.270           0      0.000409      NaN     
 7 "Selous G…       311         15 0.190        5693.     0.000470        0.0714
 8 "Kong zho…       263          1 0.115        1029.     0.000357        0.143 
 9 "3 Oceano…       241          1 0.109         154.     0.000356        1     
10 "Pao gan …       219          0 0.0977          0      0.000318      NaN     
# ℹ 47 more rows
# ℹ 1 more variable: group <int>
…
Show the code

MC2_graph_indegree2034 %>%
  as_tibble()

# A tibble: 57 × 8
   id         in_degree out_degree  eigen betweenness in_closeness out_closeness
   <chr>          <dbl>      <dbl>  <dbl>       <dbl>        <dbl>         <dbl>
 1 "hǎi dǎn …      1605         11 1           10882.     0.000385        0.0909
 2 "Mar del …      1173         10 0.406        6853.     0.000479        0.1   
 3 "Caracola…       779          6 0.269        3985.     0.000381        0.167 
 4 "Costa de…       588          6 0.215        2071.     0.000575        0.167 
 5 "Pao gan …       501          5 0.148        1793.     0.000491        0.2   
 6 "Sailors …       388          6 0.331        1213.     0.000921        0.167 
 7 "Kong zho…       267          4 0.0788       1666.     0.00134         0.167 
 8 "3 Oceano…       257          1 0.0693        474.     0.00124         0.0909
 9 "Selous G…       252         17 0.120        7060.     0.00113         0.0213
10 "Pao gan …       227          1 0.0779       2104.     0.00112         0.0345
# ℹ 47 more rows
# ℹ 1 more variable: group <int>
…
Show the code

MC2_graph_outdegree2028 %>%
  as_tibble()

# A tibble: 147 × 8
   id        in_degree out_degree   eigen betweenness in_closeness out_closeness
   <chr>         <dbl>      <dbl>   <dbl>       <dbl>        <dbl>         <dbl>
 1 Chhattis…         4        125 0.00621        566        0.5          0.00151
 2 Caracola…         0         96 0.146            0      NaN            0.00243
 3 The Salt…         5         87 0.151          260        0.333        0.00806
 4 Fresh Li…         1         83 0.111          108        1            0.00625
 5 bǐ mù yú…         3         79 0.0906         250.       0.333        0.00324
 6 Estrella…         2         75 0.00315        117        0.5          0.00820
 7 Zambezi …         0         72 0.0930           0      NaN            0.0123 
 8 Aqua Aur…         7         65 0.181         1385.       0.0323       0.00485
 9 Mar del …         0         65 0.191            0      NaN            0.0125 
10 Diao yu …         1         64 0.132          437.       0.111        0.00513
# ℹ 137 more rows
# ℹ 1 more variable: group <int>
…
Show the code

MC2_graph_outdegree2029 %>%
  as_tibble()

# A tibble: 57 × 8
   id        in_degree out_degree   eigen betweenness in_closeness out_closeness
   <chr>         <dbl>      <dbl>   <dbl>       <dbl>        <dbl>         <dbl>
 1 Chhattis…         9        127 0.00713       1138        0.125        0.00199
 2 Yu er he…         0         86 0.188            0      NaN            0.00196
 3 Diao yu …         1         69 0.0939         151.       0.333        0.00253
 4 Saltwate…         0         59 0.161            0      NaN            0.00179
 5 Playa de…         4         57 0.110         1273.       0.0556       0.00218
 6 Saltwate…         0         52 0.0538           0      NaN            0.00474
 7 Surf and…         3         52 0.0624         139.       0.333        0.00649
 8 OceanSav…         0         50 0.0675           0      NaN            0.00437
 9 xiǎo xiā…         3         50 0.0990         386        0.143        0.00510
10 Punjab S…         0         46 0.0549           0      NaN            0.00146
# ℹ 47 more rows
# ℹ 1 more variable: group <int>
…
Show the code

MC2_graph_outdegree2030 %>%
  as_tibble()

# A tibble: 68 × 8
   id         in_degree out_degree  eigen betweenness in_closeness out_closeness
   <chr>          <dbl>      <dbl>  <dbl>       <dbl>        <dbl>         <dbl>
 1 "Chhattis…        12        154 0.0167       7236.      0.0204       0.000829
 2 "Zambezi …         0         88 0.0874          0     NaN            0.00185 
 3 "Aqua Aur…         7         85 0.268        7377.      0.00437      0.00361 
 4 "Saltwate…         0         61 0.142           0     NaN            0.00217 
 5 "Rift Val…         1         50 0.0757        179.      1            0.00175 
 6 "Sea Bree…         0         46 0.0678          0     NaN            0.00329 
 7 "French  …         0         45 0.0491          0     NaN            0.00206 
 8 "OceanSav…         0         44 0.0765          0     NaN            0.00870 
 9 "Playa de…         0         44 0.0431          0     NaN            0.00578 
10 "Arunacha…         0         42 0.0832          0     NaN            0.00252 
# ℹ 58 more rows
# ℹ 1 more variable: group <int>
…
Show the code

MC2_graph_outdegree2031 %>%
  as_tibble()

# A tibble: 52 × 8
   id         in_degree out_degree  eigen betweenness in_closeness out_closeness
   <chr>          <dbl>      <dbl>  <dbl>       <dbl>        <dbl>         <dbl>
 1 "Chhattis…         8        181 0.0105       4532.        0.02        0.00146
 2 "Rajastha…         5         89 0.199         563.        0.143       0.00236
 3 "Fresh Li…         1         78 0.0907        191         1           0.00208
 4 "Line S.A…         0         78 0.266           0       NaN           0.00195
 5 "Zambezi …         0         74 0.0899          0       NaN           0.00199
 6 "xiǎo xiā…         2         66 0.101         419.        0.25        0.00307
 7 "Sea Bree…         0         64 0.0944          0       NaN           0.00308
 8 "Caracola…         0         58 0.181           0       NaN           0.00385
 9 "Perla de…         0         46 0.0625          0       NaN           0.00260
10 "Brisa Ma…         0         44 0.0413          0       NaN           0.00427
# ℹ 42 more rows
# ℹ 1 more variable: group <int>
…
Show the code

MC2_graph_outdegree2032 %>%
  as_tibble()

# A tibble: 69 × 8
   id         in_degree out_degree  eigen betweenness in_closeness out_closeness
   <chr>          <dbl>      <dbl>  <dbl>       <dbl>        <dbl>         <dbl>
 1 Chhattisg…        11        195 0.0142       5365.       0.0182       0.00117
 2 Estrella …         8        103 0.0289       2149.       0.0323       0.00272
 3 Rajasthan…         4         96 0.173         255.       0.167        0.0137 
 4 Zambezi G…         0         94 0.127           0      NaN            0.00267
 5 Fresh Lim…         2         73 0.0882        592.       0.1          0.00467
 6 Caracola …         1         72 0.171         795.       0.0233       0.00483
 7 Aqua Aura…         8         68 0.142        1966.       0.0161       0.00529
 8 Arena del…         2         67 0.196         263.       0.5          0.00256
 9 Line S.A.…         1         66 0.248         253.       0.0104       0.0139 
10 xiǎo xiā …         4         59 0.0716        646.       0.25         0.00264
# ℹ 59 more rows
# ℹ 1 more variable: group <int>
…
Show the code

MC2_graph_outdegree2033 %>%
  as_tibble()

# A tibble: 74 × 8
   id        in_degree out_degree   eigen betweenness in_closeness out_closeness
   <chr>         <dbl>      <dbl>   <dbl>       <dbl>        <dbl>         <dbl>
 1 Chhattis…         3        141 0.00680      1416         0.1         0.00116 
 2 Estrella…         4        135 0.0797       2425.        0.0147      0.000981
 3 Saltwate…         0         74 0.151           0       NaN           0.000641
 4 Fresh Li…         2         72 0.113         165.        0.5         0.00606 
 5 Dry Cree…         0         61 0.0965          0       NaN           0.00223 
 6 Uttarakh…         0         57 0.0960          0       NaN           0.00111 
 7 Zambezi …         2         55 0.128         257.        0.0556      0.0185  
 8 Caracola…         0         51 0.0831          0       NaN           0.00122 
 9 Arena de…         1         48 0.185          54.3       1           0.00193 
10 Playa de…         0         48 0.0607          0       NaN           0.00172 
# ℹ 64 more rows
# ℹ 1 more variable: group <int>
…
Show the code

MC2_graph_outdegree2034 %>%
  as_tibble()

# A tibble: 114 × 8
   id         in_degree out_degree  eigen betweenness in_closeness out_closeness
   <chr>          <dbl>      <dbl>  <dbl>       <dbl>        <dbl>         <dbl>
 1 "Line S.A…         3        184 0.657         342.       0.2          0.00613
 2 "Estrella…         2        122 0.0679       1743.       0.0278       0.00134
 3 "Aqua Aur…         3         95 0.223         241.       0.333        0.00588
 4 "Caracola…         1         93 0.0791       1044.       0.0164       0.00459
 5 "Fresh Li…         2         88 0.0981        161        1            0.00287
 6 "Saltwate…         0         79 0.133           0      NaN            0.00372
 7 "Telangan…         0         77 0.186           0      NaN            0.00300
 8 "Lake Tan…         0         69 0.0688          0      NaN            0.00568
 9 "Belgian …         0         62 0.0784          0      NaN            0.00461
10 "Andhra P…         0         56 0.0660          0      NaN            0.00769
# ℹ 104 more rows
# ℹ 1 more variable: group <int>
…
